…
Cool, now let’s join it up with the network and plot it!

g$nodes <- g$nodes %>% 
  mutate(sdg = gsub("\\..+", "", name)) %>% 
  select(-color) %>% 
  left_join(sdg_cols, by = "sdg")

g$nodes

## # A tibble: 192 x 7
##    name     id label value sdg   group_name        color  
##    <chr> <int> <chr> <int> <chr> <chr>             <chr>  
##  1 1.1.1     1 1.1.1     8 1     no-poverty-color  #e5243b
##  2 1.2.1     2 1.2.1     1 1     no-poverty-color  #e5243b
##  3 1.3.1     3 1.3.1     6 1     no-poverty-color  #e5243b
##  4 1.4.1     4 1.4.1    13 1     no-poverty-color  #e5243b
##  5 1.4.2     5 1.4.2     5 1     no-poverty-color  #e5243b
##  6 1.a.2     6 1.a.2     5 1     no-poverty-color  #e5243b
##  7 1.b.1     7 1.b.1     1 1     no-poverty-color  #e5243b
##  8 2.1.1     8 2.1.1     4 2     zero-hunger-color #dda63a
##  9 2.1.2     9 2.1.2     4 2     zero-hunger-color #dda63a
## 10 2.3.1    10 2.3.1     1 2     zero-hunger-color #dda63a
## # ... with 182 more rows
…
## clean up
ind_names <- all_names %>% enframe %>% unnest(value) %>% mutate(name = gsub(".+Metadata-|\\.docx", "", name)) %>% 
  set_names("ind_num", "ind_name") %>% 
  mutate(ind_num = gsub("\\-", "\\.", ind_num)) %>% 
  ## remove all leading zeros
  mutate(ind_num = gsub("\\.0", "\\.", ind_num),
         ind_name = gsub("\\.0", "\\.", ind_name)) %>% 
  mutate(ind_num = gsub("^0", "", ind_num),
         ind_name = gsub("^0", "", ind_name)) %>% 
  ## keep only the first row (just in case) %>% 
  group_by(ind_num) %>% slice(1) %>% ungroup

ind_names

## # A tibble: 258 x 2
##    ind_num ind_name                                                             
##    <chr>   <chr>                                                                
##  1 1.1.1a  Indicator 1.1.1: Proportion of the population living below the inter~
##  2 1.1.1b  Indicator 1.1.1: Proportion of the population living below the inter~
##  3 1.2.1   Indicator 1.2.1: Proportion of population living below the national ~
##  4 1.2.2   Indicator 1.2.2: Proportion of men, women and children of all ages l~
##  5 1.3.1a  Indicator 1.3.1: Proportion of population covered by social protecti~
##  6 1.3.1b  Indicator 1.3.1: Proportion of population covered by social protecti~
##  7 1.4.1   Indicator 1.4.1: Proportion of population living in households with ~
##  8 1.4.2   Indicator 1.4.2: Proportion of total adult population with secure te~
##  9 1.5.1   Indicator 1.5.1: Number of deaths, missing persons and directly affe~
## 10 1.5.2   Indicator 1.5.2: Direct economic loss attributed to disasters in rel~
## # ... with 248 more rows
…
